NumElements = 36
8   -1 -1 -1  1
11   1  0  1 -1
34   1 -1  1  1
36  -1  1  1  1
31   0  1 -1  1
22  -1 -1  0  1
1   -1  1  1 -1
25  -1 -1  1  1
16   1  1  1  1
23   1 -1  0  1
4   -1 -1  0 -1
30   0 -1 -1 -1
29   1 -1  1  1
27   1 -1 -1  1
33  -1  0  0  1
20  -1  1 -1  1
19  -1 -1  1  1
24   1 -1  1  0
35  -1  1  1  0
3    1 -1 -1  0
2   -1 -1 -1  0
10   1 -1 -1 -1
13   0  1  1  1
6   -1  0  1 -1
15   0 -1  1 -1
12   0  1  1  0
26  -1 -1 -1 -1
32   1  0 -1  1
18  -1  1  0  0
17  -1  1 -1 -1
5    1  1  0 -1
21   0  0 -1 -1
28   1 -1 -1  1
9    1  1 -1  1
14   1  0 -1 -1
7    1 -1  1  1
